{
    "data": [
        {
            "id": 89707,
            "name": "Gundren Rockseeker",
            "entry": "\n<p>Gundren Rockseeker has hired the adventurers to deliver provisions and supplies from Neverwinter to Phandalin.</p>\n",
            "entry_parsed": "\n<p>Gundren Rockseeker has hired the adventurers to deliver provisions and supplies from Neverwinter to Phandalin.</p>\n",
            "image": "characters/9GodP4a06h2rcsdldTE6ufBvcXQzYYVfLw1u40vJ.jpeg",
            "image_full": "https://images.kanka.io/user/EmdSl4MgGGgVd5Igsc1zrHhNC10=/src/characters%2F9GodP4a06h2rcsdldTE6ufBvcXQzYYVfLw1u40vJ.jpeg?webpfallback",
            "image_thumb": "https://images.kanka.io/user/SRTaabiKEG7H_E2lvlE8H4khZAY=/40x40/src/characters%2F9GodP4a06h2rcsdldTE6ufBvcXQzYYVfLw1u40vJ.jpeg?webpfallback",
            "has_custom_image": true,
            "is_private": false,
            "entity_id": 326481,
            "tags": [],
            "created_at": "2019-09-06T21:00:12.000000Z",
            "created_by": 2064,
            "updated_at": "2020-08-15T16:45:33.000000Z",
            "updated_by": 2064,
            "location_id": 87638,
            "title": null,
            "age": "130",
            "sex": "Male",
            "race_id": 33150,
            "type": "NPC",
            "family_id": 12025,
            "is_dead": false,
            "traits": []
        },
        {
            "id": 89709,
            "name": "Sildar Hallwinter",
            "entry": "\n<p>Sildar was escorting [character:326481] from Neverwinter to Phandalin.</p>\n",
            "entry_parsed": "\n<p>Sildar was escorting <a href=\"https://kanka.io/campaign/13936/characters/89707\" data-toggle=\"tooltip-ajax\" data-id=\"326481\" data-url=\"https://kanka.io/campaign/13936/entities/326481/tooltip\">Gundren Rockseeker</a> from Neverwinter to Phandalin.</p>\n",
            "image": "characters/jsPQKqVBOOpm9CredNhkTvMbmADO65G7L4kzepTj.jpeg",
            "image_full": "https://images.kanka.io/user/o8Gtv10zOJLYtnsvIB_v3yXx3c4=/40x40/src/characters%2FjsPQKqVBOOpm9CredNhkTvMbmADO65G7L4kzepTj.jpeg?webpfallback",
            "image_thumb": "https://images.kanka.io/user/o8Gtv10zOJLYtnsvIB_v3yXx3c4=/40x40/src/characters%2FjsPQKqVBOOpm9CredNhkTvMbmADO65G7L4kzepTj.jpeg?webpfallback",
            "has_custom_image": true,
            "is_private": false,
            "entity_id": 326489,
            "tags": [],
            "created_at": "2019-09-06T21:10:49.000000Z",
            "created_by": 2064,
            "updated_at": "2020-08-15T16:45:46.000000Z",
            "updated_by": 2064,
            "location_id": 87638,
            "title": null,
            "age": "49",
            "sex": "Male",
            "race_id": 33151,
            "type": "NPC",
            "family_id": null,
            "is_dead": false,
            "traits": []
        },
        {
            "id": 90221,
            "name": "Elmar Barthen",
            "entry": "\n<p>A lean and balding human male proprietor of <a title=\"<h4>Barthen&#039;s Provisions</h4>Barthen's is the biggest trading post in Phandalin. Its shelves stock most ordinary goods and supplies, including backpacks, bedrolls, rope, and rations. The place is open from sunup to sundown. Barthen's does not stock weapons or armor, but characte...\" href=\"https://kanka.io/en-US/campaign/13936/locations/88085\" data-toggle=\"tooltip\" data-html=\"true\">Barthen&#039;s Provisions</a>.</p>\n",
            "entry_parsed": "\n<p>A lean and balding human male proprietor of <a title=\"<h4>Barthen&#039;s Provisions</h4>Barthen's is the biggest trading post in Phandalin. Its shelves stock most ordinary goods and supplies, including backpacks, bedrolls, rope, and rations. The place is open from sunup to sundown. Barthen's does not stock weapons or armor, but characte...\" href=\"https://kanka.io/en-US/campaign/13936/locations/88085\" data-toggle=\"tooltip\" data-html=\"true\">Barthen&#039;s Provisions</a>.</p>\n",
            "image": "characters/5d75ce14e87ab_Elmar_Barthen.jpg?1503329685",
            "image_full": "https://kanka-user-assets.s3.eu-central-1.amazonaws.com/characters/5d75ce14e87ab_Elmar_Barthen.jpg%3F1503329685",
            "image_thumb": "https://kanka-user-assets.s3.eu-central-1.amazonaws.com/characters/5d75ce14e87ab_Elmar_Barthen.jpg%3F1503329685",
            "has_custom_image": true,
            "is_private": false,
            "entity_id": 328315,
            "tags": [],
            "created_at": "2019-09-09T04:56:27.000000Z",
            "created_by": 2064,
            "updated_at": "2019-09-09T04:59:17.000000Z",
            "updated_by": 2064,
            "location_id": 88085,
            "title": null,
            "age": "50",
            "sex": "Male",
            "race_id": 33151,
            "type": "NPC",
            "family_id": null,
            "is_dead": false,
            "traits": []
        },
        {
            "id": 90222,
            "name": "Daran Edermath",
            "entry": "\n<p>A retired adventurer who lives in a tidy little cottage beside an apple orchard. Has a quest for the Heroes. [note:466104]</p>\n",
            "entry_parsed": "\n<p>A retired adventurer who lives in a tidy little cottage beside an apple orchard. Has a quest for the Heroes. <i class=\"unknown-mention unknown-entity\">Unknown</i></p>\n",
            "image": "characters/5d75ce449e272_daran.jpg?1510081106",
            "image_full": "https://kanka-user-assets.s3.eu-central-1.amazonaws.com/characters/5d75ce449e272_daran.jpg%3F1510081106",
            "image_thumb": "https://kanka-user-assets.s3.eu-central-1.amazonaws.com/characters/5d75ce449e272_daran.jpg%3F1510081106",
            "has_custom_image": true,
            "is_private": false,
            "entity_id": 328318,
            "tags": [],
            "created_at": "2019-09-09T04:58:17.000000Z",
            "created_by": 2064,
            "updated_at": "2020-01-28T20:19:07.000000Z",
            "updated_by": 2064,
            "location_id": 88086,
            "title": null,
            "age": "132",
            "sex": "Male",
            "race_id": 33314,
            "type": "NPC",
            "family_id": null,
            "is_dead": false,
            "traits": []
        },
        {
            "id": 90224,
            "name": "Halia Thornton",
            "entry": "\n<p>Guildmaster of the Miner's Exchange.</p>\n",
            "entry_parsed": "\n<p>Guildmaster of the Miner's Exchange.</p>\n",
            "image": null,
            "image_full": "https://kanka.io/images/defaults/characters_thumb.jpg",
            "image_thumb": "https://kanka.io/images/defaults/characters_thumb.jpg",
            "has_custom_image": false,
            "is_private": false,
            "entity_id": 328324,
            "tags": [],
            "created_at": "2019-09-09T05:04:35.000000Z",
            "created_by": 2064,
            "updated_at": "2019-11-13T21:12:20.000000Z",
            "updated_by": 2064,
            "location_id": 88088,
            "title": "Guildmaster",
            "age": "41",
            "sex": "Female",
            "race_id": 33151,
            "type": "NPC",
            "family_id": null,
            "is_dead": false,
            "traits": []
        },
        {
            "id": 90226,
            "name": "Grista",
            "entry": "\n<p>Female, no-nonsense, dwarf who runs the [location:328334]. Doesn't have time for games.</p>\n",
            "entry_parsed": "\n<p>Female, no-nonsense, dwarf who runs the <a href=\"https://kanka.io/campaign/13936/locations/88089\" data-toggle=\"tooltip-ajax\" data-id=\"328334\" data-url=\"https://kanka.io/campaign/13936/entities/328334/tooltip\">The Sleeping Giant</a>. Doesn't have time for games.</p>\n",
            "image": "characters/5d75d500a930e_grista.jpg?1539564866",
            "image_full": "https://kanka-user-assets.s3.eu-central-1.amazonaws.com/characters/5d75d500a930e_grista.jpg%3F1539564866",
            "image_thumb": "https://kanka-user-assets.s3.eu-central-1.amazonaws.com/characters/5d75d500a930e_grista.jpg%3F1539564866",
            "has_custom_image": true,
            "is_private": false,
            "entity_id": 328336,
            "tags": [],
            "created_at": "2019-09-09T05:28:49.000000Z",
            "created_by": 2064,
            "updated_at": "2019-11-13T21:09:48.000000Z",
            "updated_by": 2064,
            "location_id": 88089,
            "title": null,
            "age": "175",
            "sex": "Female",
            "race_id": 33150,
            "type": "NPC",
            "family_id": null,
            "is_dead": false,
            "traits": []
        },
        {
            "id": 90344,
            "name": "Toblen Stonehill",
            "entry": "\n<p>The proprietor of [location:328793], Toblen, is a short, friendly young human male. </p>\n<p>Married to [character:328799]. Father to Tina, Gene, and Louise</p>\n",
            "entry_parsed": "\n<p>The proprietor of <a href=\"https://kanka.io/campaign/13936/locations/88224\" data-toggle=\"tooltip-ajax\" data-id=\"328793\" data-url=\"https://kanka.io/campaign/13936/entities/328793/tooltip\">The Stonehilll Inn</a>, Toblen, is a short, friendly young human male. </p>\n<p>Married to <a href=\"https://kanka.io/campaign/13936/characters/90345\" data-toggle=\"tooltip-ajax\" data-id=\"328799\" data-url=\"https://kanka.io/campaign/13936/entities/328799/tooltip\">Trilena Stonehill</a>. Father to Tina, Gene, and Louise</p>\n",
            "image": "characters/5d765cfce91b3_Toblen_Stonehill.jpg?1503329738",
            "image_full": "https://kanka-user-assets.s3.eu-central-1.amazonaws.com/characters/5d765cfce91b3_Toblen_Stonehill.jpg%3F1503329738",
            "image_thumb": "https://kanka-user-assets.s3.eu-central-1.amazonaws.com/characters/5d765cfce91b3_Toblen_Stonehill.jpg%3F1503329738",
            "has_custom_image": true,
            "is_private": false,
            "entity_id": 328795,
            "tags": [],
            "created_at": "2019-09-09T15:09:01.000000Z",
            "created_by": 2064,
            "updated_at": "2019-11-13T20:55:10.000000Z",
            "updated_by": 2064,
            "location_id": 88224,
            "title": null,
            "age": "33",
            "sex": "Male",
            "race_id": 33151,
            "type": "NPC",
            "family_id": 12130,
            "is_dead": false,
            "traits": []
        },
        {
            "id": 90345,
            "name": "Trilena Stonehill",
            "entry": "\n<p>A very bright young woman who happens to be [character:328795]'s wife and helps run the inn. She's always just a bit too busy it seems.</p>\n",
            "entry_parsed": "\n<p>A very bright young woman who happens to be <a href=\"https://kanka.io/campaign/13936/characters/90344\" data-toggle=\"tooltip-ajax\" data-id=\"328795\" data-url=\"https://kanka.io/campaign/13936/entities/328795/tooltip\">Toblen Stonehill</a>'s wife and helps run the inn. She's always just a bit too busy it seems.</p>\n",
            "image": "characters/5d765e4bb1458_73fb760e14ab7c8901c90b880cb2f32b.jpg",
            "image_full": "https://images.kanka.io/user/k8HTdhjXOCqy_PjyRZ4_dEccCFA=/40x40/src/characters%2F5d765e4bb1458_73fb760e14ab7c8901c90b880cb2f32b.jpg?webpfallback",
            "image_thumb": "https://images.kanka.io/user/k8HTdhjXOCqy_PjyRZ4_dEccCFA=/40x40/src/characters%2F5d765e4bb1458_73fb760e14ab7c8901c90b880cb2f32b.jpg?webpfallback",
            "has_custom_image": true,
            "is_private": false,
            "entity_id": 328799,
            "tags": [],
            "created_at": "2019-09-09T15:11:45.000000Z",
            "created_by": 2064,
            "updated_at": "2019-09-09T15:15:28.000000Z",
            "updated_by": 2064,
            "location_id": 88224,
            "title": null,
            "age": "29",
            "sex": "Female",
            "race_id": 33151,
            "type": "NPC",
            "family_id": 12130,
            "is_dead": false,
            "traits": []
        },
        {
            "id": 90353,
            "name": "Sister Garaele",
            "entry": "\n<p>The [location:328810] is in the care of a scholarly acolyte named Sister Garaele.</p>\n",
            "entry_parsed": "\n<p>The <a href=\"https://kanka.io/campaign/13936/locations/88227\" data-toggle=\"tooltip-ajax\" data-id=\"328810\" data-url=\"https://kanka.io/campaign/13936/entities/328810/tooltip\">Shrine of Luck</a> is in the care of a scholarly acolyte named Sister Garaele.</p>\n",
            "image": "characters/07Aune4UaEkcEHPeqVzrfHOJ4AhF4Hm5fji02Vju.jpeg",
            "image_full": "https://images.kanka.io/user/QMi7QjNMY-ZlIk7UG_unVXlWW_o=/40x40/src/characters%2F07Aune4UaEkcEHPeqVzrfHOJ4AhF4Hm5fji02Vju.jpeg?webpfallback",
            "image_thumb": "https://images.kanka.io/user/QMi7QjNMY-ZlIk7UG_unVXlWW_o=/40x40/src/characters%2F07Aune4UaEkcEHPeqVzrfHOJ4AhF4Hm5fji02Vju.jpeg?webpfallback",
            "has_custom_image": true,
            "is_private": false,
            "entity_id": 328817,
            "tags": [],
            "created_at": "2019-09-09T15:27:00.000000Z",
            "created_by": 2064,
            "updated_at": "2020-06-23T17:14:48.000000Z",
            "updated_by": 2064,
            "location_id": 88227,
            "title": "Sister",
            "age": "73",
            "sex": "Female",
            "race_id": 33380,
            "type": "NPC",
            "family_id": null,
            "is_dead": false,
            "traits": []
        },
        {
            "id": 91044,
            "name": "Umeran D'Sydor",
            "entry": null,
            "entry_parsed": null,
            "image": "characters/OrfvUcJAdvslzsx48ZP0cVVhXZoLuHuhJDYiMBO7.jpeg",
            "image_full": "https://images.kanka.io/user/DcpGhZWhmlE_mOXf--geKO0Fhv4=/40x40/src/characters%2FOrfvUcJAdvslzsx48ZP0cVVhXZoLuHuhJDYiMBO7.jpeg?webpfallback",
            "image_thumb": "https://images.kanka.io/user/DcpGhZWhmlE_mOXf--geKO0Fhv4=/40x40/src/characters%2FOrfvUcJAdvslzsx48ZP0cVVhXZoLuHuhJDYiMBO7.jpeg?webpfallback",
            "has_custom_image": true,
            "is_private": false,
            "entity_id": 331560,
            "tags": [],
            "created_at": "2019-09-12T17:28:47.000000Z",
            "created_by": 2064,
            "updated_at": "2019-11-13T21:01:04.000000Z",
            "updated_by": 2064,
            "location_id": null,
            "title": "Fighter",
            "age": null,
            "sex": "Male",
            "race_id": 33151,
            "type": "Player Character",
            "family_id": null,
            "is_dead": false,
            "traits": []
        },
        {
            "id": 92102,
            "name": "Kaelinie Wavestryder",
            "entry": null,
            "entry_parsed": null,
            "image": "characters/AD1PKqeMqI1tvR7VyI1lwDnqsWNdh3p1hImoMjPK.jpeg",
            "image_full": "https://images.kanka.io/user/SAaq9dBqzi688p7JdwdPjzQs1Z4=/40x40/src/characters%2FAD1PKqeMqI1tvR7VyI1lwDnqsWNdh3p1hImoMjPK.jpeg?webpfallback",
            "image_thumb": "https://images.kanka.io/user/SAaq9dBqzi688p7JdwdPjzQs1Z4=/40x40/src/characters%2FAD1PKqeMqI1tvR7VyI1lwDnqsWNdh3p1hImoMjPK.jpeg?webpfallback",
            "has_custom_image": true,
            "is_private": false,
            "entity_id": 335612,
            "tags": [],
            "created_at": "2019-09-16T22:21:23.000000Z",
            "created_by": 2064,
            "updated_at": "2019-11-13T21:49:39.000000Z",
            "updated_by": 2064,
            "location_id": null,
            "title": "Rogue",
            "age": "32",
            "sex": "Female",
            "race_id": 33314,
            "type": "Player Character",
            "family_id": null,
            "is_dead": false,
            "traits": []
        },
        {
            "id": 92108,
            "name": "Arnis Greystone",
            "entry": null,
            "entry_parsed": null,
            "image": "characters/lmevl8XykYBIW0KPd0EnOqkgwEVOElxWPOcTYPzc.jpeg",
            "image_full": "https://images.kanka.io/user/udtABDbjxWxZej1jv4LAjV43-lE=/40x40/src/characters%2Flmevl8XykYBIW0KPd0EnOqkgwEVOElxWPOcTYPzc.jpeg?webpfallback",
            "image_thumb": "https://images.kanka.io/user/udtABDbjxWxZej1jv4LAjV43-lE=/40x40/src/characters%2Flmevl8XykYBIW0KPd0EnOqkgwEVOElxWPOcTYPzc.jpeg?webpfallback",
            "has_custom_image": true,
            "is_private": false,
            "entity_id": 335633,
            "tags": [],
            "created_at": "2019-09-16T22:51:33.000000Z",
            "created_by": 2064,
            "updated_at": "2019-11-13T21:07:07.000000Z",
            "updated_by": 2064,
            "location_id": null,
            "title": "Druid",
            "age": null,
            "sex": "Female",
            "race_id": 33150,
            "type": "Player Character",
            "family_id": null,
            "is_dead": false,
            "traits": [
                {
                    "id": 70337,
                    "name": "Background",
                    "entry": "Although Arnis has been alone for most of her life, she remembers Gundren Rockseeker. He was a friend of the family that would buy extra produce the family had grown. Every time Gundren visited, he always had a small toy or candy for her from some far off place in Faerun. \r\n\r\nAll of that seems like lifetimes ago as she examines Gundren's job notice in Neverwinter.",
                    "section": "personality",
                    "is_private": false,
                    "default_order": 0
                },
                {
                    "id": 70338,
                    "name": "Goal",
                    "entry": "Gundren promised he'd talk about what he remembers of the Greystone family over dinner and drinks in Phandalin. Perhaps he can shed light on the mysterious illness that overcame the entire village.",
                    "section": "personality",
                    "is_private": false,
                    "default_order": 1
                }
            ]
        },
        {
            "id": 92112,
            "name": "Orben Tealeaf",
            "entry": null,
            "entry_parsed": null,
            "image": "characters/X65USe9hM2JtsUsDDxxWSfK25Cfzs213Xepn7Ur4.png",
            "image_full": "https://images.kanka.io/user/W7kIouncsbtSkdUMK8WiO2N2yrA=/40x40/src/characters%2FX65USe9hM2JtsUsDDxxWSfK25Cfzs213Xepn7Ur4.png?webpfallback",
            "image_thumb": "https://images.kanka.io/user/W7kIouncsbtSkdUMK8WiO2N2yrA=/40x40/src/characters%2FX65USe9hM2JtsUsDDxxWSfK25Cfzs213Xepn7Ur4.png?webpfallback",
            "has_custom_image": true,
            "is_private": false,
            "entity_id": 335641,
            "tags": [],
            "created_at": "2019-09-16T23:02:40.000000Z",
            "created_by": 2064,
            "updated_at": "2020-08-29T20:12:30.000000Z",
            "updated_by": 2143,
            "location_id": null,
            "title": "Bard",
            "age": "100",
            "sex": "Male",
            "race_id": 33894,
            "type": "Player Character",
            "family_id": null,
            "is_dead": false,
            "traits": []
        },
        {
            "id": 102709,
            "name": "Balgus Ironfist",
            "entry": null,
            "entry_parsed": null,
            "image": "characters/taVGvWTy7JTbRXOoFASBX695UVBGekyZkto2L6OM.png",
            "image_full": "https://images.kanka.io/user/rinv_s-UPD8Fu5gqwJu-h6Wxq0g=/40x40/src/characters%2FtaVGvWTy7JTbRXOoFASBX695UVBGekyZkto2L6OM.png?webpfallback",
            "image_thumb": "https://images.kanka.io/user/rinv_s-UPD8Fu5gqwJu-h6Wxq0g=/40x40/src/characters%2FtaVGvWTy7JTbRXOoFASBX695UVBGekyZkto2L6OM.png?webpfallback",
            "has_custom_image": true,
            "is_private": false,
            "entity_id": 375870,
            "tags": [],
            "created_at": "2019-10-31T02:20:09.000000Z",
            "created_by": 2064,
            "updated_at": "2019-11-13T21:06:36.000000Z",
            "updated_by": 2064,
            "location_id": null,
            "title": "Cleric",
            "age": null,
            "sex": "Male",
            "race_id": 33150,
            "type": "Player Character",
            "family_id": null,
            "is_dead": false,
            "traits": []
        },
        {
            "id": 106058,
            "name": "Q Alderleaf",
            "entry": null,
            "entry_parsed": null,
            "image": "characters/9MWoqNO0MLl8x6OfpZ73Fn4t6Eo5udmHbEMgm9KC.jpeg",
            "image_full": "https://images.kanka.io/user/EyI2PC41T4XoDxZ5Izhsr1s2ctg=/40x40/src/characters%2F9MWoqNO0MLl8x6OfpZ73Fn4t6Eo5udmHbEMgm9KC.jpeg?webpfallback",
            "image_thumb": "https://images.kanka.io/user/EyI2PC41T4XoDxZ5Izhsr1s2ctg=/40x40/src/characters%2F9MWoqNO0MLl8x6OfpZ73Fn4t6Eo5udmHbEMgm9KC.jpeg?webpfallback",
            "has_custom_image": true,
            "is_private": false,
            "entity_id": 389514,
            "tags": [],
            "created_at": "2019-11-13T21:11:45.000000Z",
            "created_by": 2064,
            "updated_at": "2020-10-23T16:06:30.000000Z",
            "updated_by": 2064,
            "location_id": 87638,
            "title": "Farmer",
            "age": "45",
            "sex": "Female",
            "race_id": 33894,
            "type": "NPC",
            "family_id": 31770,
            "is_dead": false,
            "traits": []
        }
    ],
    "links": {
        "first": "http://kanka.io/api/1.0/campaigns/13936/characters?page=1",
        "last": "http://kanka.io/api/1.0/campaigns/13936/characters?page=5",
        "prev": null,
        "next": "http://kanka.io/api/1.0/campaigns/13936/characters?page=2"
    },
    "meta": {
        "current_page": 1,
        "from": 1,
        "last_page": 5,
        "path": "http://kanka.io/api/1.0/campaigns/13936/characters",
        "per_page": 15,
        "to": 15,
        "total": 68
    }
}