{
  "data": [
    {
      "id": 87638,
      "name": "Phandalin",
      "entry": "\n<p>A small frontier town home to farmers, woodcutters, fur traders, and prospectors drawn by stories of gold and platinum in the foothills of the Sword Mountains. The town consists of 40 or 50 simple log buildings, some built on old field stone foundations. More old ruins - crumbling stone walls covered in ivy and briars - surround the newer houses and shops, showing how this must have been a much larger town in centuries past.</p>\n",
      "entry_parsed": "\n<p>A small frontier town home to farmers, woodcutters, fur traders, and prospectors drawn by stories of gold and platinum in the foothills of the Sword Mountains. The town consists of 40 or 50 simple log buildings, some built on old field stone foundations. More old ruins - crumbling stone walls covered in ivy and briars - surround the newer houses and shops, showing how this must have been a much larger town in centuries past.</p>\n",
      "image": null,
      "image_full": "https://kanka.io/images/defaults/locations_thumb.jpg",
      "image_thumb": "https://kanka.io/images/defaults/locations_thumb.jpg",
      "has_custom_image": false,
      "is_private": false,
      "entity_id": 326524,
      "tags": [],
      "created_at": "2019-09-06T23:39:10.000000Z",
      "created_by": 2064,
      "updated_at": "2020-11-09T08:09:34.000000Z",
      "updated_by": 2064,
      "type": "Town",
      "map": "https://images.kanka.io/user/0dyn6iuKyOrLU0_ufJ2s5HDJQM4=/src/locations%2FrgHyMUWkXloOJ0ZNn5EDb0MuL5jjG4c0fiDRVko4.jpeg?webpfallback",
      "is_map_private": 0,
      "parent_location_id": null
    },
    {
      "id": 88085,
      "name": "Barthen's Provisions",
      "entry": "\n<p>Barthen's is the biggest trading post in Phandalin. Its shelves stock most ordinary goods and supplies, including backpacks, bedrolls, rope, and rations. The place is open from sunup to sundown. Barthen's does not stock weapons or armor, but characters can purchase other adventuring gear here, with the exception of items that cost more than 25 gp.</p>\n",
      "entry_parsed": "\n<p>Barthen's is the biggest trading post in Phandalin. Its shelves stock most ordinary goods and supplies, including backpacks, bedrolls, rope, and rations. The place is open from sunup to sundown. Barthen's does not stock weapons or armor, but characters can purchase other adventuring gear here, with the exception of items that cost more than 25 gp.</p>\n",
      "image": null,
      "image_full": "https://kanka.io/images/defaults/locations_thumb.jpg",
      "image_thumb": "https://kanka.io/images/defaults/locations_thumb.jpg",
      "has_custom_image": false,
      "is_private": false,
      "entity_id": 328314,
      "tags": [],
      "created_at": "2019-09-09T04:55:46.000000Z",
      "created_by": 2064,
      "updated_at": "2020-11-09T08:09:34.000000Z",
      "updated_by": 2064,
      "type": "Trading Post",
      "map": "https://kanka.io/images/defaults/locations_thumb.jpg",
      "is_map_private": 0,
      "parent_location_id": 87638
    },
    {
      "id": 88086,
      "name": "Edermath Orchard",
      "entry": null,
      "entry_parsed": null,
      "image": null,
      "image_full": "https://kanka.io/images/defaults/locations_thumb.jpg",
      "image_thumb": "https://kanka.io/images/defaults/locations_thumb.jpg",
      "has_custom_image": false,
      "is_private": true,
      "entity_id": 328317,
      "tags": [],
      "created_at": "2019-09-09T04:57:57.000000Z",
      "created_by": 2064,
      "updated_at": "2020-11-09T08:09:34.000000Z",
      "updated_by": 2064,
      "type": null,
      "map": "https://kanka.io/images/defaults/locations_thumb.jpg",
      "is_map_private": 0,
      "parent_location_id": 87638
    },
    {
      "id": 88087,
      "name": "Lionshield Coster",
      "entry": "\n<p>Hanging above the front door of this modest trading post is a sign shaped like a wooden shield with a blue lion painted on it.</p>\n<p> </p>\n<p>This building is owned by the Lionshields, a merchant company based in the city of Yartar, over a hundred miles to the east. They ship finished good to Phandalin and other small settlements throughout the region.</p>\n",
      "entry_parsed": "\n<p>Hanging above the front door of this modest trading post is a sign shaped like a wooden shield with a blue lion painted on it.</p>\n<p> </p>\n<p>This building is owned by the Lionshields, a merchant company based in the city of Yartar, over a hundred miles to the east. They ship finished good to Phandalin and other small settlements throughout the region.</p>\n",
      "image": null,
      "image_full": "https://kanka.io/images/defaults/locations_thumb.jpg",
      "image_thumb": "https://kanka.io/images/defaults/locations_thumb.jpg",
      "has_custom_image": false,
      "is_private": false,
      "entity_id": 328319,
      "tags": [],
      "created_at": "2019-09-09T05:01:05.000000Z",
      "created_by": 2064,
      "updated_at": "2020-11-09T08:09:34.000000Z",
      "updated_by": 2064,
      "type": "Trading Post",
      "map": "https://kanka.io/images/defaults/locations_thumb.jpg",
      "is_map_private": 0,
      "parent_location_id": 87638
    },
    {
      "id": 88088,
      "name": "Phandalin Miner's Exchange",
      "entry": "\n<p>The Miner's Exchange is a trading post where local miners have their valuable finds weighed, measured, and paid out. In the absence of any local lord or authority, the exchange also serves as an unofficial records office., registering claims to various streams and excavations around the area. There isn't any real gold rush in Phandalin, but enough wealth is hidden in nearby streams and valleys to support a good number of independent prospectors.</p>\n",
      "entry_parsed": "\n<p>The Miner's Exchange is a trading post where local miners have their valuable finds weighed, measured, and paid out. In the absence of any local lord or authority, the exchange also serves as an unofficial records office., registering claims to various streams and excavations around the area. There isn't any real gold rush in Phandalin, but enough wealth is hidden in nearby streams and valleys to support a good number of independent prospectors.</p>\n",
      "image": null,
      "image_full": "https://kanka.io/images/defaults/locations_thumb.jpg",
      "image_thumb": "https://kanka.io/images/defaults/locations_thumb.jpg",
      "has_custom_image": false,
      "is_private": true,
      "entity_id": 328322,
      "tags": [],
      "created_at": "2019-09-09T05:02:59.000000Z",
      "created_by": 2064,
      "updated_at": "2020-11-09T08:09:34.000000Z",
      "updated_by": 2064,
      "type": "Trading Post",
      "map": "https://kanka.io/images/defaults/locations_thumb.jpg",
      "is_map_private": 0,
      "parent_location_id": 87638
    },
    {
      "id": 88089,
      "name": "The Sleeping Giant",
      "entry": "\n<p>The Sleeping Giant is a ramshackle taproom at the east end of town. This rundown tap house is a dirty, dangerous watering hole at the end of Phandalin's main street. It is frequented by Redbrand thugs and operated by a surly female dwarf named Grista.</p>\n",
      "entry_parsed": "\n<p>The Sleeping Giant is a ramshackle taproom at the east end of town. This rundown tap house is a dirty, dangerous watering hole at the end of Phandalin's main street. It is frequented by Redbrand thugs and operated by a surly female dwarf named Grista.</p>\n",
      "image": null,
      "image_full": "https://kanka.io/images/defaults/locations_thumb.jpg",
      "image_thumb": "https://kanka.io/images/defaults/locations_thumb.jpg",
      "has_custom_image": false,
      "is_private": true,
      "entity_id": 328334,
      "tags": [],
      "created_at": "2019-09-09T05:20:44.000000Z",
      "created_by": 2064,
      "updated_at": "2020-11-09T08:09:34.000000Z",
      "updated_by": 2064,
      "type": "Bar",
      "map": "https://kanka.io/images/defaults/locations_thumb.jpg",
      "is_map_private": 0,
      "parent_location_id": 87638
    },
    {
      "id": 88224,
      "name": "The Stonehilll Inn",
      "entry": "\n<p>In the center of town stands a large, newly built roadhouse of fieldstone and rough-hewn timbers. The common room is filled with locals nursing mugs of ale or cider, all of them eyeing you with curiosity.</p>\n",
      "entry_parsed": "\n<p>In the center of town stands a large, newly built roadhouse of fieldstone and rough-hewn timbers. The common room is filled with locals nursing mugs of ale or cider, all of them eyeing you with curiosity.</p>\n",
      "image": "locations/TO6XmfPJRYOh57rJ6SmDPV6bBwTEcF54nktM1N2O.jpeg",
      "image_full": "https://images.kanka.io/user/lJZWRgz3rCI1WxEUYgZndzr3X_Y=/src/locations%2FTO6XmfPJRYOh57rJ6SmDPV6bBwTEcF54nktM1N2O.jpeg?webpfallback",
      "image_thumb": "https://images.kanka.io/user/mfm_MTobnEBW9wW_VKWkAYXaA_Y=/40x40/src/locations%2FTO6XmfPJRYOh57rJ6SmDPV6bBwTEcF54nktM1N2O.jpeg?webpfallback",
      "has_custom_image": true,
      "is_private": false,
      "entity_id": 328793,
      "tags": [],
      "created_at": "2019-09-09T15:05:27.000000Z",
      "created_by": 2064,
      "updated_at": "2020-11-09T08:09:34.000000Z",
      "updated_by": 2064,
      "type": "Inn",
      "map": "https://kanka.io/images/defaults/locations_thumb.jpg",
      "is_map_private": 0,
      "parent_location_id": 87638
    },
    {
      "id": 88227,
      "name": "Shrine of Luck",
      "entry": "\n<p>Phandalin's only temple is a small shrine made of stones taken from the nearby ruins. It is dedicated to Tymora, goddess of luck and good fortune.</p>\n",
      "entry_parsed": "\n<p>Phandalin's only temple is a small shrine made of stones taken from the nearby ruins. It is dedicated to Tymora, goddess of luck and good fortune.</p>\n",
      "image": null,
      "image_full": "https://kanka.io/images/defaults/locations_thumb.jpg",
      "image_thumb": "https://kanka.io/images/defaults/locations_thumb.jpg",
      "has_custom_image": false,
      "is_private": true,
      "entity_id": 328810,
      "tags": [],
      "created_at": "2019-09-09T15:25:24.000000Z",
      "created_by": 2064,
      "updated_at": "2020-11-09T08:09:34.000000Z",
      "updated_by": 2064,
      "type": "Temple",
      "map": "https://kanka.io/images/defaults/locations_thumb.jpg",
      "is_map_private": 0,
      "parent_location_id": 87638
    },
    {
      "id": 88288,
      "name": "Tresendar Manor",
      "entry": "\n<p>A ruined manor that was once the home of the Tresendar family. </p>\n<p> </p>\n<p>The Heroes found:</p>\n<ul>\n<li>Redbrands</li>\n<li>Iarno Albrek/Glasstaff</li>\n<li>Nothic</li>\n<li>Mirna and her children</li>\n<li>Ring of Mind Shielding</li>\n<li>[character:465947]</li>\n<li>Bugbears</li>\n</ul>\n",
      "entry_parsed": "\n<p>A ruined manor that was once the home of the Tresendar family. </p>\n<p> </p>\n<p>The Heroes found:</p>\n<ul>\n<li>Redbrands</li>\n<li>Iarno Albrek/Glasstaff</li>\n<li>Nothic</li>\n<li>Mirna and her children</li>\n<li>Ring of Mind Shielding</li>\n<li><a href=\"https://kanka.io/campaign/13936/characters/125454\" data-toggle=\"tooltip-ajax\" data-id=\"465947\" data-url=\"https://kanka.io/campaign/13936/entities/465947/tooltip\">Droop</a></li>\n<li>Bugbears</li>\n</ul>\n",
      "image": "locations/5e307500a5fe8_redbrand-hideout.jpg?w=580",
      "image_full": "https://kanka-user-assets.s3.eu-central-1.amazonaws.com/locations/5e307500a5fe8_redbrand-hideout.jpg%3Fw%3D580",
      "image_thumb": "https://kanka-user-assets.s3.eu-central-1.amazonaws.com/locations/5e307500a5fe8_redbrand-hideout.jpg%3Fw%3D580",
      "has_custom_image": true,
      "is_private": false,
      "entity_id": 328996,
      "tags": [],
      "created_at": "2019-09-09T18:51:08.000000Z",
      "created_by": 2064,
      "updated_at": "2020-11-09T08:09:34.000000Z",
      "updated_by": 2064,
      "type": "Ruin",
      "map": "https://kanka.io/images/defaults/locations_thumb.jpg",
      "is_map_private": 0,
      "parent_location_id": 87638
    },
    {
      "id": 88468,
      "name": "Neverwinter",
      "entry": "\n<p>A much larger city along the Sword Coast. Where our adventurer's first start out when escorting mining supplies from here to [location:326524]</p>\n<p>In 1451, Mt. Hotenow exploded and destroyed large parts of Neverwinter, leaving behind a large chasm in the Southeast quadrant which spewed plaguechanged horrors. In 1467, Lord Dagult Neverember lead the rebuilding efforts, including magically sealing the Chasm in 1484.</p>\n",
      "entry_parsed": "\n<p>A much larger city along the Sword Coast. Where our adventurer's first start out when escorting mining supplies from here to <a href=\"https://kanka.io/campaign/13936/locations/87638\" data-toggle=\"tooltip-ajax\" data-id=\"326524\" data-url=\"https://kanka.io/campaign/13936/entities/326524/tooltip\">Phandalin</a></p>\n<p>In 1451, Mt. Hotenow exploded and destroyed large parts of Neverwinter, leaving behind a large chasm in the Southeast quadrant which spewed plaguechanged horrors. In 1467, Lord Dagult Neverember lead the rebuilding efforts, including magically sealing the Chasm in 1484.</p>\n",
      "image": "locations/2rzKHhXVBMrxxKA12SlQuQEIJRsHMgOb9RTYyPgh.jpeg",
      "image_full": "https://images.kanka.io/user/lg9fuT_IKTo4Ls1mcPo0a8J9UCQ=/src/locations%2F2rzKHhXVBMrxxKA12SlQuQEIJRsHMgOb9RTYyPgh.jpeg?webpfallback",
      "image_thumb": "https://images.kanka.io/user/_C2KHiOMfKzC8ETSFPiSMqZM2KA=/40x40/src/locations%2F2rzKHhXVBMrxxKA12SlQuQEIJRsHMgOb9RTYyPgh.jpeg?webpfallback",
      "has_custom_image": true,
      "is_private": false,
      "entity_id": 329864,
      "tags": [],
      "created_at": "2019-09-10T18:56:39.000000Z",
      "created_by": 2064,
      "updated_at": "2020-11-09T08:09:34.000000Z",
      "updated_by": 2064,
      "type": "City",
      "map": "https://kanka.io/images/defaults/locations_thumb.jpg",
      "is_map_private": 0,
      "parent_location_id": null
    },
    {
      "id": 88471,
      "name": "Triboar",
      "entry": "\n<p>A town on the Savage Frontier. The town is ruled by a democratically elected Lord Protector.</p>\n",
      "entry_parsed": "\n<p>A town on the Savage Frontier. The town is ruled by a democratically elected Lord Protector.</p>\n",
      "image": null,
      "image_full": "https://kanka.io/images/defaults/locations_thumb.jpg",
      "image_thumb": "https://kanka.io/images/defaults/locations_thumb.jpg",
      "has_custom_image": false,
      "is_private": false,
      "entity_id": 329871,
      "tags": [],
      "created_at": "2019-09-10T18:57:50.000000Z",
      "created_by": 2064,
      "updated_at": "2020-11-09T08:09:34.000000Z",
      "updated_by": 2064,
      "type": "Town",
      "map": "https://kanka.io/images/defaults/locations_thumb.jpg",
      "is_map_private": 0,
      "parent_location_id": null
    },
    {
      "id": 88472,
      "name": "Yartar",
      "entry": "\n<p>A city located east of Triboar.</p>\n",
      "entry_parsed": "\n<p>A city located east of Triboar.</p>\n",
      "image": null,
      "image_full": "https://kanka.io/images/defaults/locations_thumb.jpg",
      "image_thumb": "https://kanka.io/images/defaults/locations_thumb.jpg",
      "has_custom_image": false,
      "is_private": false,
      "entity_id": 329874,
      "tags": [],
      "created_at": "2019-09-10T16:58:38.000000Z",
      "created_by": 2064,
      "updated_at": "2020-11-09T08:08:07.000000Z",
      "updated_by": 2064,
      "type": "City",
      "map": "https://kanka.io/images/defaults/locations_thumb.jpg",
      "is_map_private": 0,
      "parent_location_id": null
    },
    {
      "id": 122250,
      "name": "Thundertree",
      "entry": null,
      "entry_parsed": null,
      "image": null,
      "image_full": "https://kanka.io/images/defaults/locations_thumb.jpg",
      "image_thumb": "https://kanka.io/images/defaults/locations_thumb.jpg",
      "has_custom_image": false,
      "is_private": false,
      "entity_id": 466497,
      "tags": [],
      "created_at": "2020-01-28T21:15:45.000000Z",
      "created_by": 2064,
      "updated_at": "2020-11-09T08:09:34.000000Z",
      "updated_by": 2064,
      "type": null,
      "map": "https://kanka.io/images/defaults/locations_thumb.jpg",
      "is_map_private": 0,
      "parent_location_id": 209411
    },
    {
      "id": 144341,
      "name": "Conyberry",
      "entry": "\n<p>The town of Conyberry was sacked by barbarians years ago and now lies in ruins. The Triboar Trail runs right through the abandoned town. </p>\n",
      "entry_parsed": "\n<p>The town of Conyberry was sacked by barbarians years ago and now lies in ruins. The Triboar Trail runs right through the abandoned town. </p>\n",
      "image": "locations/yWxFiOQDorklUUqB9uYF2XvE7tdxlRjuAfioDPId.png",
      "image_full": "https://images.kanka.io/user/qbOoAr0VD_RAt40yVJomnhvrHwY=/src/locations%2FyWxFiOQDorklUUqB9uYF2XvE7tdxlRjuAfioDPId.png?webpfallback",
      "image_thumb": "https://images.kanka.io/user/Toz8itGWGC57XHA-z8JRFz7-rrM=/40x40/src/locations%2FyWxFiOQDorklUUqB9uYF2XvE7tdxlRjuAfioDPId.png?webpfallback",
      "has_custom_image": true,
      "is_private": false,
      "entity_id": 560013,
      "tags": [],
      "created_at": "2020-03-23T04:30:27.000000Z",
      "created_by": 2064,
      "updated_at": "2020-11-09T08:09:34.000000Z",
      "updated_by": 2064,
      "type": "Ruin",
      "map": "https://kanka.io/images/defaults/locations_thumb.jpg",
      "is_map_private": 0,
      "parent_location_id": 209411
    },
    {
      "id": 144345,
      "name": "Cragmaw Castle",
      "entry": "\n<p>A castle somewhere in Neverwinter Wood</p>\n",
      "entry_parsed": "\n<p>A castle somewhere in Neverwinter Wood</p>\n",
      "image": null,
      "image_full": "https://kanka.io/images/defaults/locations_thumb.jpg",
      "image_thumb": "https://kanka.io/images/defaults/locations_thumb.jpg",
      "has_custom_image": false,
      "is_private": false,
      "entity_id": 560031,
      "tags": [],
      "created_at": "2020-03-23T05:02:20.000000Z",
      "created_by": 2064,
      "updated_at": "2020-11-09T08:09:34.000000Z",
      "updated_by": 2064,
      "type": "Ruin",
      "map": "https://images.kanka.io/user/YWCCv82y5CbGO6SI_BSLYHUTJTk=/src/locations%2F2rvSyE1IM2o3mlsysgGDXcbGwIisMu22KFGK2HKC.jpeg?webpfallback",
      "is_map_private": 0,
      "parent_location_id": 209411
    }
  ],
  "links": {
    "first": "http://kanka.io/api/v1/campaigns/13936/locations?page=1",
    "last": "http://kanka.io/api/v1/campaigns/13936/locations?page=3",
    "prev": null,
    "next": "http://kanka.io/api/v1/campaigns/13936/locations?page=2"
  },
  "meta": {
    "current_page": 1,
    "from": 1,
    "last_page": 3,
    "path": "http://kanka.io/api/v1/campaigns/13936/locations",
    "per_page": 15,
    "to": 15,
    "total": 38
  }
}